/nethome/wmartin45/cse6230fa17-proj1-cstevens34
deepthought6
Mon Sep 18 20:06:42 EDT 2017
./proj1 -i 20 -f data.xyz -o out.xyz.22845 -t 8
allocating 553472 space for computations
Number of particles: 10000
Number of intervals to simulate: 20
Using random seed: 23
Using thread count: 8
With 10000 particles of radius 1 and a box width of 59.386291, the volume fraction is 0.2.
The interaction volume is 33.5103, so we expect 1.6 interactions per particle, 8000 overall.
time: 10.5279, 10.5279
Done interval: 0
time: 10.3311, 20.8957
time: 10.3447, 31.2764
time: 10.337, 41.6492
time: 10.3161, 52.0014
time: 10.301, 62.3383
Done interval: 5
time: 10.3116, 72.6856
time: 10.3204, 83.0419
time: 10.3958, 93.4734
time: 10.2978, 103.807
time: 10.3019, 114.145
Done interval: 10
time: 10.3099, 124.49
time: 10.3104, 134.837
time: 10.3093, 145.183
time: 10.3037, 155.522
time: 10.3043, 165.861
Done interval: 15
time: 10.3134, 176.211
time: 10.3052, 186.552
time: 10.3011, 196.889
time: 10.3178, 207.242
Time: 207.278 for 20 intervals

real	3m27.436s
user	27m32.112s
sys	0m0.331s
Mon Sep 18 20:10:09 EDT 2017
